gcd_bit                      gcd_rem        gcd_sub

Test 0 PASSED Time: 10mcs    14mcs          21mcs
Test 1 PASSED Time: 3mcs     2mcs           10mcs
Test 2 PASSED Time: 21mcs    2mcs           6221805mcs
Test 3 PASSED Time: 21mcs    2mcs           10356458mcs
Test 4 PASSED Time: 28mcs    3mcs           137770mcs
Test 5 PASSED Time: 23mcs    2mcs           107635mcs
Test 6 PASSED Time: 92mcs    11mcs          time is over
Test 7 PASSED Time: 169mcs   24mcs          time is over
Test 8 PASSED Time: 209mcs   24mcs          time is over
Test 9 PASSED Time: 37mcs    3mcs           time is over


Результат:
4 байта - все пункты выполнены
4 часа ушло























